[Mon Jul 15 00:09:19.655023 2019] [mpm_event:notice] [pid 9707:tid 140392913050560] AH00489: Apache/2.4.29 (Ubuntu) configured -- resuming normal operations
[Mon Jul 15 00:09:19.655048 2019] [core:notice] [pid 9707:tid 140392913050560] AH00094: Command line: '/usr/sbin/apache2'
[Tue Jul 16 00:08:21.801808 2019] [mpm_event:notice] [pid 9707:tid 140392913050560] AH00493: SIGUSR1 received.  Doing graceful restart
AH00558: apache2: Could not reliably determine the server's fully qualified domain name, using 127.0.1.1. Set the 'ServerName' directive globally to suppress this message
