ERROR: apport (pid 24601) Mon Jul 15 20:13:09 2019: called for pid 24592, signal 11, core limit 0, dump mode 1
ERROR: apport (pid 24601) Mon Jul 15 20:13:09 2019: executable: /usr/lib/firefox/firefox (command line "/usr/lib/firefox/firefox -contentproc -childID 35 -isForBrowser -prefsLen 11032 -schedulerPrefs 0001,2 -greomni /usr/lib/firefox/omni.ja -appomni /usr/lib/firefox/browser/omni.ja -appdir /usr/lib/firefox/browser 5330 true tab")
ERROR: apport (pid 24601) Mon Jul 15 20:13:09 2019: executable version is blacklisted, ignoring
ERROR: apport (pid 24611) Mon Jul 15 20:13:14 2019: called for pid 24606, signal 11, core limit 0, dump mode 1
ERROR: apport (pid 24611) Mon Jul 15 20:13:14 2019: executable: /usr/lib/firefox/firefox (command line "/usr/lib/firefox/firefox -contentproc -childID 36 -isForBrowser -prefsLen 11032 -schedulerPrefs 0001,2 -greomni /usr/lib/firefox/omni.ja -appomni /usr/lib/firefox/browser/omni.ja -appdir /usr/lib/firefox/browser 5330 true tab")
ERROR: apport (pid 24611) Mon Jul 15 20:13:14 2019: executable version is blacklisted, ignoring
ERROR: apport (pid 24617) Mon Jul 15 20:13:16 2019: called for pid 24612, signal 11, core limit 0, dump mode 1
ERROR: apport (pid 24617) Mon Jul 15 20:13:16 2019: executable: /usr/lib/firefox/firefox (command line "/usr/lib/firefox/firefox -contentproc -childID 37 -isForBrowser -prefsLen 11032 -schedulerPrefs 0001,2 -greomni /usr/lib/firefox/omni.ja -appomni /usr/lib/firefox/browser/omni.ja -appdir /usr/lib/firefox/browser 5330 true tab")
ERROR: apport (pid 24617) Mon Jul 15 20:13:16 2019: executable version is blacklisted, ignoring
