Jul  7 00:17:01 aimlsec CRON[26261]: pam_unix(cron:session): session opened for user root by (uid=0)
Jul  7 00:17:01 aimlsec CRON[26261]: pam_unix(cron:session): session closed for user root
Jul  7 01:17:01 aimlsec CRON[28887]: pam_unix(cron:session): session opened for user root by (uid=0)
Jul  7 01:17:01 aimlsec CRON[28887]: pam_unix(cron:session): session closed for user root
Jul  7 01:50:01 aimlsec CRON[30494]: pam_unix(cron:session): session opened for user root by (uid=0)
Jul  7 01:50:01 aimlsec CRON[30494]: pam_unix(cron:session): session closed for user root
Jul  7 02:17:01 aimlsec CRON[31752]: pam_unix(cron:session): session opened for user root by (uid=0)
Jul  7 02:17:01 aimlsec CRON[31752]: pam_unix(cron:session): session closed for user root
Jul  7 03:17:01 aimlsec CRON[2512]: pam_unix(cron:session): session opened for user root by (uid=0)
Jul  7 03:17:01 aimlsec CRON[2512]: pam_unix(cron:session): session closed for user root
Jul  7 04:17:01 aimlsec CRON[5851]: pam_unix(cron:session): session opened for user root by (uid=0)
Jul  7 04:17:01 aimlsec CRON[5851]: pam_unix(cron:session): session closed for user root
Jul  7 05:17:01 aimlsec CRON[8633]: pam_unix(cron:session): session opened for user root by (uid=0)
Jul  7 05:17:01 aimlsec CRON[8633]: pam_unix(cron:session): session closed for user root
Jul  7 06:17:01 aimlsec CRON[11525]: pam_unix(cron:session): session opened for user root by (uid=0)
Jul  7 06:17:01 aimlsec CRON[11525]: pam_unix(cron:session): session closed for user root
Jul  7 06:25:01 aimlsec CRON[11893]: pam_unix(cron:session): session opened for user root by (uid=0)
Jul  7 06:25:01 aimlsec CRON[11893]: pam_unix(cron:session): session closed for user root
Jul  7 06:47:01 aimlsec CRON[12888]: pam_unix(cron:session): session opened for user root by (uid=0)
Jul  7 06:47:01 aimlsec CRON[12888]: pam_unix(cron:session): session closed for user root
Jul  7 07:17:01 aimlsec CRON[14322]: pam_unix(cron:session): session opened for user root by (uid=0)
Jul  7 07:17:01 aimlsec CRON[14322]: pam_unix(cron:session): session closed for user root
Jul  7 07:30:00 aimlsec CRON[14926]: pam_unix(cron:session): session opened for user root by (uid=0)
Jul  7 07:30:00 aimlsec CRON[14926]: pam_unix(cron:session): session closed for user root
Jul  7 08:17:01 aimlsec CRON[17076]: pam_unix(cron:session): session opened for user root by (uid=0)
Jul  7 08:17:01 aimlsec CRON[17076]: pam_unix(cron:session): session closed for user root
Jul  7 09:17:01 aimlsec CRON[19852]: pam_unix(cron:session): session opened for user root by (uid=0)
Jul  7 09:17:01 aimlsec CRON[19852]: pam_unix(cron:session): session closed for user root
Jul  7 10:17:01 aimlsec CRON[22622]: pam_unix(cron:session): session opened for user root by (uid=0)
Jul  7 10:17:01 aimlsec CRON[22622]: pam_unix(cron:session): session closed for user root
Jul  7 11:17:01 aimlsec CRON[25404]: pam_unix(cron:session): session opened for user root by (uid=0)
Jul  7 11:17:01 aimlsec CRON[25404]: pam_unix(cron:session): session closed for user root
Jul  7 12:17:01 aimlsec CRON[28229]: pam_unix(cron:session): session opened for user root by (uid=0)
Jul  7 12:17:01 aimlsec CRON[28229]: pam_unix(cron:session): session closed for user root
Jul  7 12:41:12 aimlsec pkexec: pam_unix(polkit-1:session): session opened for user root by (uid=1000)
Jul  7 12:41:12 aimlsec pkexec[30017]: aimlsec: Executing command [USER=root] [TTY=unknown] [CWD=/home/aimlsec] [COMMAND=/usr/lib/update-notifier/package-system-locked]
Jul  7 13:17:01 aimlsec CRON[31643]: pam_unix(cron:session): session opened for user root by (uid=0)
Jul  7 13:17:01 aimlsec CRON[31643]: pam_unix(cron:session): session closed for user root
Jul  7 14:17:01 aimlsec CRON[2318]: pam_unix(cron:session): session opened for user root by (uid=0)
Jul  7 14:17:01 aimlsec CRON[2318]: pam_unix(cron:session): session closed for user root
Jul  7 15:17:01 aimlsec CRON[5085]: pam_unix(cron:session): session opened for user root by (uid=0)
Jul  7 15:17:01 aimlsec CRON[5085]: pam_unix(cron:session): session closed for user root
Jul  7 16:17:01 aimlsec CRON[7867]: pam_unix(cron:session): session opened for user root by (uid=0)
Jul  7 16:17:01 aimlsec CRON[7867]: pam_unix(cron:session): session closed for user root
Jul  7 17:17:01 aimlsec CRON[10659]: pam_unix(cron:session): session opened for user root by (uid=0)
Jul  7 17:17:01 aimlsec CRON[10659]: pam_unix(cron:session): session closed for user root
Jul  7 18:17:01 aimlsec CRON[13440]: pam_unix(cron:session): session opened for user root by (uid=0)
Jul  7 18:17:01 aimlsec CRON[13440]: pam_unix(cron:session): session closed for user root
Jul  7 19:17:01 aimlsec CRON[16253]: pam_unix(cron:session): session opened for user root by (uid=0)
Jul  7 19:17:01 aimlsec CRON[16253]: pam_unix(cron:session): session closed for user root
Jul  7 20:17:01 aimlsec CRON[19047]: pam_unix(cron:session): session opened for user root by (uid=0)
Jul  7 20:17:01 aimlsec CRON[19047]: pam_unix(cron:session): session closed for user root
Jul  7 21:17:01 aimlsec CRON[21820]: pam_unix(cron:session): session opened for user root by (uid=0)
Jul  7 21:17:01 aimlsec CRON[21820]: pam_unix(cron:session): session closed for user root
Jul  7 22:17:01 aimlsec CRON[24564]: pam_unix(cron:session): session opened for user root by (uid=0)
Jul  7 22:17:01 aimlsec CRON[24564]: pam_unix(cron:session): session closed for user root
Jul  7 23:17:01 aimlsec CRON[27496]: pam_unix(cron:session): session opened for user root by (uid=0)
Jul  7 23:17:01 aimlsec CRON[27496]: pam_unix(cron:session): session closed for user root
Jul  8 00:17:01 aimlsec CRON[30643]: pam_unix(cron:session): session opened for user root by (uid=0)
Jul  8 00:17:01 aimlsec CRON[30643]: pam_unix(cron:session): session closed for user root
Jul  8 01:17:01 aimlsec CRON[1160]: pam_unix(cron:session): session opened for user root by (uid=0)
Jul  8 01:17:01 aimlsec CRON[1160]: pam_unix(cron:session): session closed for user root
Jul  8 01:50:01 aimlsec CRON[2898]: pam_unix(cron:session): session opened for user root by (uid=0)
Jul  8 01:50:01 aimlsec CRON[2898]: pam_unix(cron:session): session closed for user root
Jul  8 02:17:01 aimlsec CRON[4235]: pam_unix(cron:session): session opened for user root by (uid=0)
Jul  8 02:17:01 aimlsec CRON[4235]: pam_unix(cron:session): session closed for user root
Jul  8 03:17:01 aimlsec CRON[6940]: pam_unix(cron:session): session opened for user root by (uid=0)
Jul  8 03:17:01 aimlsec CRON[6940]: pam_unix(cron:session): session closed for user root
Jul  8 04:17:01 aimlsec CRON[9897]: pam_unix(cron:session): session opened for user root by (uid=0)
Jul  8 04:17:01 aimlsec CRON[9897]: pam_unix(cron:session): session closed for user root
Jul  8 05:17:01 aimlsec CRON[12649]: pam_unix(cron:session): session opened for user root by (uid=0)
Jul  8 05:17:01 aimlsec CRON[12649]: pam_unix(cron:session): session closed for user root
Jul  8 06:17:01 aimlsec CRON[15470]: pam_unix(cron:session): session opened for user root by (uid=0)
Jul  8 06:17:02 aimlsec CRON[15470]: pam_unix(cron:session): session closed for user root
Jul  8 06:25:01 aimlsec CRON[15830]: pam_unix(cron:session): session opened for user root by (uid=0)
Jul  8 06:25:01 aimlsec CRON[15830]: pam_unix(cron:session): session closed for user root
Jul  8 07:17:01 aimlsec CRON[18217]: pam_unix(cron:session): session opened for user root by (uid=0)
Jul  8 07:17:01 aimlsec CRON[18217]: pam_unix(cron:session): session closed for user root
Jul  8 07:30:01 aimlsec CRON[18799]: pam_unix(cron:session): session opened for user root by (uid=0)
Jul  8 07:30:01 aimlsec CRON[18799]: pam_unix(cron:session): session closed for user root
Jul  8 08:17:01 aimlsec CRON[20976]: pam_unix(cron:session): session opened for user root by (uid=0)
Jul  8 08:17:01 aimlsec CRON[20976]: pam_unix(cron:session): session closed for user root
Jul  8 09:17:01 aimlsec CRON[23771]: pam_unix(cron:session): session opened for user root by (uid=0)
Jul  8 09:17:01 aimlsec CRON[23771]: pam_unix(cron:session): session closed for user root
Jul  8 10:17:01 aimlsec CRON[26546]: pam_unix(cron:session): session opened for user root by (uid=0)
Jul  8 10:17:01 aimlsec CRON[26546]: pam_unix(cron:session): session closed for user root
Jul  8 11:17:01 aimlsec CRON[29489]: pam_unix(cron:session): session opened for user root by (uid=0)
Jul  8 11:17:01 aimlsec CRON[29489]: pam_unix(cron:session): session closed for user root
Jul  8 12:17:01 aimlsec CRON[32349]: pam_unix(cron:session): session opened for user root by (uid=0)
Jul  8 12:17:01 aimlsec CRON[32349]: pam_unix(cron:session): session closed for user root
Jul  8 13:17:01 aimlsec CRON[3102]: pam_unix(cron:session): session opened for user root by (uid=0)
Jul  8 13:17:01 aimlsec CRON[3102]: pam_unix(cron:session): session closed for user root
Jul  8 14:17:01 aimlsec CRON[5930]: pam_unix(cron:session): session opened for user root by (uid=0)
Jul  8 14:17:01 aimlsec CRON[5930]: pam_unix(cron:session): session closed for user root
Jul  8 15:17:01 aimlsec CRON[8651]: pam_unix(cron:session): session opened for user root by (uid=0)
Jul  8 15:17:01 aimlsec CRON[8651]: pam_unix(cron:session): session closed for user root
Jul  8 16:17:01 aimlsec CRON[11367]: pam_unix(cron:session): session opened for user root by (uid=0)
Jul  8 16:17:01 aimlsec CRON[11367]: pam_unix(cron:session): session closed for user root
Jul  8 16:53:13 aimlsec pkexec: pam_unix(polkit-1:session): session opened for user root by (uid=1000)
Jul  8 16:53:13 aimlsec pkexec[13605]: aimlsec: Executing command [USER=root] [TTY=unknown] [CWD=/home/aimlsec] [COMMAND=/usr/lib/update-notifier/package-system-locked]
Jul  8 17:17:01 aimlsec CRON[14744]: pam_unix(cron:session): session opened for user root by (uid=0)
Jul  8 17:17:01 aimlsec CRON[14744]: pam_unix(cron:session): session closed for user root
Jul  8 18:17:01 aimlsec CRON[17384]: pam_unix(cron:session): session opened for user root by (uid=0)
Jul  8 18:17:01 aimlsec CRON[17384]: pam_unix(cron:session): session closed for user root
Jul  8 19:17:01 aimlsec CRON[20029]: pam_unix(cron:session): session opened for user root by (uid=0)
Jul  8 19:17:01 aimlsec CRON[20029]: pam_unix(cron:session): session closed for user root
Jul  8 20:17:01 aimlsec CRON[22675]: pam_unix(cron:session): session opened for user root by (uid=0)
Jul  8 20:17:01 aimlsec CRON[22675]: pam_unix(cron:session): session closed for user root
Jul  8 21:17:01 aimlsec CRON[25400]: pam_unix(cron:session): session opened for user root by (uid=0)
Jul  8 21:17:01 aimlsec CRON[25400]: pam_unix(cron:session): session closed for user root
Jul  8 22:17:01 aimlsec CRON[28092]: pam_unix(cron:session): session opened for user root by (uid=0)
Jul  8 22:17:01 aimlsec CRON[28092]: pam_unix(cron:session): session closed for user root
Jul  8 23:17:01 aimlsec CRON[31022]: pam_unix(cron:session): session opened for user root by (uid=0)
Jul  8 23:17:01 aimlsec CRON[31022]: pam_unix(cron:session): session closed for user root
Jul  9 00:17:01 aimlsec CRON[1985]: pam_unix(cron:session): session opened for user root by (uid=0)
Jul  9 00:17:01 aimlsec CRON[1985]: pam_unix(cron:session): session closed for user root
Jul  9 01:17:01 aimlsec CRON[4902]: pam_unix(cron:session): session opened for user root by (uid=0)
Jul  9 01:17:01 aimlsec CRON[4902]: pam_unix(cron:session): session closed for user root
Jul  9 01:50:01 aimlsec CRON[6466]: pam_unix(cron:session): session opened for user root by (uid=0)
Jul  9 01:50:01 aimlsec CRON[6466]: pam_unix(cron:session): session closed for user root
Jul  9 02:17:01 aimlsec CRON[7721]: pam_unix(cron:session): session opened for user root by (uid=0)
Jul  9 02:17:01 aimlsec CRON[7721]: pam_unix(cron:session): session closed for user root
Jul  9 03:17:01 aimlsec CRON[10494]: pam_unix(cron:session): session opened for user root by (uid=0)
Jul  9 03:17:01 aimlsec CRON[10494]: pam_unix(cron:session): session closed for user root
Jul  9 04:17:01 aimlsec CRON[13453]: pam_unix(cron:session): session opened for user root by (uid=0)
Jul  9 04:17:01 aimlsec CRON[13453]: pam_unix(cron:session): session closed for user root
Jul  9 05:17:01 aimlsec CRON[16254]: pam_unix(cron:session): session opened for user root by (uid=0)
Jul  9 05:17:01 aimlsec CRON[16254]: pam_unix(cron:session): session closed for user root
Jul  9 06:08:13 aimlsec pkexec: pam_unix(polkit-1:session): session opened for user root by (uid=1000)
Jul  9 06:08:13 aimlsec pkexec[19503]: aimlsec: Executing command [USER=root] [TTY=unknown] [CWD=/home/aimlsec] [COMMAND=/usr/lib/update-notifier/package-system-locked]
Jul  9 06:17:01 aimlsec CRON[19929]: pam_unix(cron:session): session opened for user root by (uid=0)
Jul  9 06:17:01 aimlsec CRON[19929]: pam_unix(cron:session): session closed for user root
Jul  9 06:25:01 aimlsec CRON[20293]: pam_unix(cron:session): session opened for user root by (uid=0)
Jul  9 06:25:01 aimlsec CRON[20293]: pam_unix(cron:session): session closed for user root
Jul  9 07:17:01 aimlsec CRON[22657]: pam_unix(cron:session): session opened for user root by (uid=0)
Jul  9 07:17:01 aimlsec CRON[22657]: pam_unix(cron:session): session closed for user root
Jul  9 07:30:01 aimlsec CRON[23244]: pam_unix(cron:session): session opened for user root by (uid=0)
Jul  9 07:30:01 aimlsec CRON[23244]: pam_unix(cron:session): session closed for user root
Jul  9 08:17:01 aimlsec CRON[25363]: pam_unix(cron:session): session opened for user root by (uid=0)
Jul  9 08:17:01 aimlsec CRON[25363]: pam_unix(cron:session): session closed for user root
Jul  9 09:17:01 aimlsec CRON[28134]: pam_unix(cron:session): session opened for user root by (uid=0)
Jul  9 09:17:01 aimlsec CRON[28134]: pam_unix(cron:session): session closed for user root
Jul  9 10:17:01 aimlsec CRON[30946]: pam_unix(cron:session): session opened for user root by (uid=0)
Jul  9 10:17:01 aimlsec CRON[30946]: pam_unix(cron:session): session closed for user root
Jul  9 11:17:01 aimlsec CRON[1586]: pam_unix(cron:session): session opened for user root by (uid=0)
Jul  9 11:17:01 aimlsec CRON[1586]: pam_unix(cron:session): session closed for user root
Jul  9 12:17:01 aimlsec CRON[4479]: pam_unix(cron:session): session opened for user root by (uid=0)
Jul  9 12:17:01 aimlsec CRON[4479]: pam_unix(cron:session): session closed for user root
Jul  9 13:17:01 aimlsec CRON[7216]: pam_unix(cron:session): session opened for user root by (uid=0)
Jul  9 13:17:01 aimlsec CRON[7216]: pam_unix(cron:session): session closed for user root
Jul  9 14:17:01 aimlsec CRON[9980]: pam_unix(cron:session): session opened for user root by (uid=0)
Jul  9 14:17:01 aimlsec CRON[9980]: pam_unix(cron:session): session closed for user root
Jul  9 15:17:01 aimlsec CRON[12752]: pam_unix(cron:session): session opened for user root by (uid=0)
Jul  9 15:17:01 aimlsec CRON[12752]: pam_unix(cron:session): session closed for user root
Jul  9 16:14:13 aimlsec pkexec: pam_unix(polkit-1:session): session opened for user root by (uid=1000)
Jul  9 16:14:13 aimlsec pkexec[15986]: aimlsec: Executing command [USER=root] [TTY=unknown] [CWD=/home/aimlsec] [COMMAND=/usr/lib/update-notifier/package-system-locked]
Jul  9 16:17:01 aimlsec CRON[16128]: pam_unix(cron:session): session opened for user root by (uid=0)
Jul  9 16:17:01 aimlsec CRON[16128]: pam_unix(cron:session): session closed for user root
Jul  9 17:17:01 aimlsec CRON[18932]: pam_unix(cron:session): session opened for user root by (uid=0)
Jul  9 17:17:01 aimlsec CRON[18932]: pam_unix(cron:session): session closed for user root
Jul  9 18:17:01 aimlsec CRON[22294]: pam_unix(cron:session): session opened for user root by (uid=0)
Jul  9 18:17:01 aimlsec CRON[22294]: pam_unix(cron:session): session closed for user root
Jul  9 19:17:01 aimlsec CRON[25050]: pam_unix(cron:session): session opened for user root by (uid=0)
Jul  9 19:17:01 aimlsec CRON[25050]: pam_unix(cron:session): session closed for user root
Jul  9 20:17:01 aimlsec CRON[27835]: pam_unix(cron:session): session opened for user root by (uid=0)
Jul  9 20:17:01 aimlsec CRON[27835]: pam_unix(cron:session): session closed for user root
Jul  9 21:17:01 aimlsec CRON[30715]: pam_unix(cron:session): session opened for user root by (uid=0)
Jul  9 21:17:01 aimlsec CRON[30715]: pam_unix(cron:session): session closed for user root
Jul  9 22:17:01 aimlsec CRON[1294]: pam_unix(cron:session): session opened for user root by (uid=0)
Jul  9 22:17:01 aimlsec CRON[1294]: pam_unix(cron:session): session closed for user root
Jul  9 23:17:01 aimlsec CRON[4403]: pam_unix(cron:session): session opened for user root by (uid=0)
Jul  9 23:17:01 aimlsec CRON[4403]: pam_unix(cron:session): session closed for user root
Jul 10 00:17:01 aimlsec CRON[7580]: pam_unix(cron:session): session opened for user root by (uid=0)
Jul 10 00:17:01 aimlsec CRON[7580]: pam_unix(cron:session): session closed for user root
Jul 10 01:17:01 aimlsec CRON[10295]: pam_unix(cron:session): session opened for user root by (uid=0)
Jul 10 01:17:01 aimlsec CRON[10295]: pam_unix(cron:session): session closed for user root
Jul 10 01:50:01 aimlsec CRON[11773]: pam_unix(cron:session): session opened for user root by (uid=0)
Jul 10 01:50:01 aimlsec CRON[11773]: pam_unix(cron:session): session closed for user root
Jul 10 02:17:01 aimlsec CRON[12987]: pam_unix(cron:session): session opened for user root by (uid=0)
Jul 10 02:17:01 aimlsec CRON[12987]: pam_unix(cron:session): session closed for user root
Jul 10 03:17:01 aimlsec CRON[15621]: pam_unix(cron:session): session opened for user root by (uid=0)
Jul 10 03:17:01 aimlsec CRON[15621]: pam_unix(cron:session): session closed for user root
Jul 10 04:17:01 aimlsec CRON[18476]: pam_unix(cron:session): session opened for user root by (uid=0)
Jul 10 04:17:01 aimlsec CRON[18476]: pam_unix(cron:session): session closed for user root
Jul 10 05:17:01 aimlsec CRON[21263]: pam_unix(cron:session): session opened for user root by (uid=0)
Jul 10 05:17:01 aimlsec CRON[21263]: pam_unix(cron:session): session closed for user root
Jul 10 06:17:01 aimlsec CRON[24039]: pam_unix(cron:session): session opened for user root by (uid=0)
Jul 10 06:17:01 aimlsec CRON[24039]: pam_unix(cron:session): session closed for user root
Jul 10 06:25:01 aimlsec CRON[24401]: pam_unix(cron:session): session opened for user root by (uid=0)
Jul 10 06:25:01 aimlsec CRON[24401]: pam_unix(cron:session): session closed for user root
Jul 10 06:50:13 aimlsec pkexec: pam_unix(polkit-1:session): session opened for user root by (uid=1000)
Jul 10 06:50:13 aimlsec pkexec[28015]: aimlsec: Executing command [USER=root] [TTY=unknown] [CWD=/home/aimlsec] [COMMAND=/usr/lib/update-notifier/package-system-locked]
Jul 10 07:17:01 aimlsec CRON[29348]: pam_unix(cron:session): session opened for user root by (uid=0)
Jul 10 07:17:01 aimlsec CRON[29348]: pam_unix(cron:session): session closed for user root
Jul 10 07:30:01 aimlsec CRON[29987]: pam_unix(cron:session): session opened for user root by (uid=0)
Jul 10 07:30:01 aimlsec CRON[29987]: pam_unix(cron:session): session closed for user root
Jul 10 08:17:01 aimlsec CRON[32168]: pam_unix(cron:session): session opened for user root by (uid=0)
Jul 10 08:17:01 aimlsec CRON[32168]: pam_unix(cron:session): session closed for user root
Jul 10 08:56:13 aimlsec pkexec: pam_unix(polkit-1:session): session opened for user root by (uid=1000)
Jul 10 08:56:13 aimlsec pkexec[2478]: aimlsec: Executing command [USER=root] [TTY=unknown] [CWD=/home/aimlsec] [COMMAND=/usr/lib/update-notifier/package-system-locked]
Jul 10 09:17:01 aimlsec CRON[3585]: pam_unix(cron:session): session opened for user root by (uid=0)
Jul 10 09:17:01 aimlsec CRON[3585]: pam_unix(cron:session): session closed for user root
Jul 10 10:17:01 aimlsec CRON[6359]: pam_unix(cron:session): session opened for user root by (uid=0)
Jul 10 10:17:01 aimlsec CRON[6359]: pam_unix(cron:session): session closed for user root
Jul 10 11:17:01 aimlsec CRON[9215]: pam_unix(cron:session): session opened for user root by (uid=0)
Jul 10 11:17:01 aimlsec CRON[9215]: pam_unix(cron:session): session closed for user root
Jul 10 12:17:01 aimlsec CRON[11941]: pam_unix(cron:session): session opened for user root by (uid=0)
Jul 10 12:17:01 aimlsec CRON[11941]: pam_unix(cron:session): session closed for user root
Jul 10 13:17:01 aimlsec CRON[14697]: pam_unix(cron:session): session opened for user root by (uid=0)
Jul 10 13:17:01 aimlsec CRON[14697]: pam_unix(cron:session): session closed for user root
Jul 10 14:17:01 aimlsec CRON[17424]: pam_unix(cron:session): session opened for user root by (uid=0)
Jul 10 14:17:01 aimlsec CRON[17424]: pam_unix(cron:session): session closed for user root
Jul 10 15:17:01 aimlsec CRON[20139]: pam_unix(cron:session): session opened for user root by (uid=0)
Jul 10 15:17:01 aimlsec CRON[20139]: pam_unix(cron:session): session closed for user root
Jul 10 16:17:01 aimlsec CRON[22816]: pam_unix(cron:session): session opened for user root by (uid=0)
Jul 10 16:17:01 aimlsec CRON[22816]: pam_unix(cron:session): session closed for user root
Jul 10 17:17:01 aimlsec CRON[25473]: pam_unix(cron:session): session opened for user root by (uid=0)
Jul 10 17:17:01 aimlsec CRON[25473]: pam_unix(cron:session): session closed for user root
Jul 10 18:17:01 aimlsec CRON[28052]: pam_unix(cron:session): session opened for user root by (uid=0)
Jul 10 18:17:01 aimlsec CRON[28052]: pam_unix(cron:session): session closed for user root
Jul 10 19:17:01 aimlsec CRON[30904]: pam_unix(cron:session): session opened for user root by (uid=0)
Jul 10 19:17:01 aimlsec CRON[30904]: pam_unix(cron:session): session closed for user root
Jul 10 20:17:01 aimlsec CRON[1407]: pam_unix(cron:session): session opened for user root by (uid=0)
Jul 10 20:17:01 aimlsec CRON[1407]: pam_unix(cron:session): session closed for user root
Jul 10 21:17:01 aimlsec CRON[4520]: pam_unix(cron:session): session opened for user root by (uid=0)
Jul 10 21:17:01 aimlsec CRON[4520]: pam_unix(cron:session): session closed for user root
Jul 10 22:17:01 aimlsec CRON[7498]: pam_unix(cron:session): session opened for user root by (uid=0)
Jul 10 22:17:01 aimlsec CRON[7498]: pam_unix(cron:session): session closed for user root
Jul 10 23:17:01 aimlsec CRON[10305]: pam_unix(cron:session): session opened for user root by (uid=0)
Jul 10 23:17:01 aimlsec CRON[10305]: pam_unix(cron:session): session closed for user root
Jul 11 00:17:01 aimlsec CRON[13397]: pam_unix(cron:session): session opened for user root by (uid=0)
Jul 11 00:17:01 aimlsec CRON[13397]: pam_unix(cron:session): session closed for user root
Jul 11 01:17:01 aimlsec CRON[16199]: pam_unix(cron:session): session opened for user root by (uid=0)
Jul 11 01:17:01 aimlsec CRON[16199]: pam_unix(cron:session): session closed for user root
Jul 11 01:50:01 aimlsec CRON[17716]: pam_unix(cron:session): session opened for user root by (uid=0)
Jul 11 01:50:01 aimlsec CRON[17716]: pam_unix(cron:session): session closed for user root
Jul 11 02:17:01 aimlsec CRON[18993]: pam_unix(cron:session): session opened for user root by (uid=0)
Jul 11 02:17:01 aimlsec CRON[18993]: pam_unix(cron:session): session closed for user root
Jul 11 03:17:01 aimlsec CRON[21703]: pam_unix(cron:session): session opened for user root by (uid=0)
Jul 11 03:17:01 aimlsec CRON[21703]: pam_unix(cron:session): session closed for user root
Jul 11 04:17:01 aimlsec CRON[24557]: pam_unix(cron:session): session opened for user root by (uid=0)
Jul 11 04:17:01 aimlsec CRON[24557]: pam_unix(cron:session): session closed for user root
Jul 11 05:17:01 aimlsec CRON[27256]: pam_unix(cron:session): session opened for user root by (uid=0)
Jul 11 05:17:01 aimlsec CRON[27256]: pam_unix(cron:session): session closed for user root
Jul 11 06:17:01 aimlsec CRON[30079]: pam_unix(cron:session): session opened for user root by (uid=0)
Jul 11 06:17:01 aimlsec CRON[30079]: pam_unix(cron:session): session closed for user root
Jul 11 06:25:01 aimlsec CRON[30525]: pam_unix(cron:session): session opened for user root by (uid=0)
Jul 11 06:25:01 aimlsec CRON[30525]: pam_unix(cron:session): session closed for user root
Jul 11 07:17:01 aimlsec CRON[429]: pam_unix(cron:session): session opened for user root by (uid=0)
Jul 11 07:17:01 aimlsec CRON[429]: pam_unix(cron:session): session closed for user root
Jul 11 07:30:01 aimlsec CRON[1149]: pam_unix(cron:session): session opened for user root by (uid=0)
Jul 11 07:30:01 aimlsec CRON[1149]: pam_unix(cron:session): session closed for user root
Jul 11 08:17:01 aimlsec CRON[3610]: pam_unix(cron:session): session opened for user root by (uid=0)
Jul 11 08:17:01 aimlsec CRON[3610]: pam_unix(cron:session): session closed for user root
Jul 11 09:17:01 aimlsec CRON[6266]: pam_unix(cron:session): session opened for user root by (uid=0)
Jul 11 09:17:01 aimlsec CRON[6266]: pam_unix(cron:session): session closed for user root
Jul 11 09:25:58 aimlsec pkexec: pam_unix(polkit-1:session): session opened for user root by (uid=1000)
Jul 11 09:25:58 aimlsec pkexec[7217]: aimlsec: Executing command [USER=root] [TTY=unknown] [CWD=/home/aimlsec] [COMMAND=/usr/lib/update-notifier/package-system-locked]
Jul 11 10:17:01 aimlsec CRON[9543]: pam_unix(cron:session): session opened for user root by (uid=0)
Jul 11 10:17:01 aimlsec CRON[9543]: pam_unix(cron:session): session closed for user root
Jul 11 11:17:01 aimlsec CRON[12385]: pam_unix(cron:session): session opened for user root by (uid=0)
Jul 11 11:17:01 aimlsec CRON[12385]: pam_unix(cron:session): session closed for user root
Jul 11 12:17:01 aimlsec CRON[15263]: pam_unix(cron:session): session opened for user root by (uid=0)
Jul 11 12:17:01 aimlsec CRON[15263]: pam_unix(cron:session): session closed for user root
Jul 11 13:17:01 aimlsec CRON[18059]: pam_unix(cron:session): session opened for user root by (uid=0)
Jul 11 13:17:01 aimlsec CRON[18059]: pam_unix(cron:session): session closed for user root
Jul 11 14:17:01 aimlsec CRON[20850]: pam_unix(cron:session): session opened for user root by (uid=0)
Jul 11 14:17:01 aimlsec CRON[20850]: pam_unix(cron:session): session closed for user root
Jul 11 15:17:01 aimlsec CRON[23642]: pam_unix(cron:session): session opened for user root by (uid=0)
Jul 11 15:17:01 aimlsec CRON[23642]: pam_unix(cron:session): session closed for user root
Jul 11 16:17:01 aimlsec CRON[26388]: pam_unix(cron:session): session opened for user root by (uid=0)
Jul 11 16:17:01 aimlsec CRON[26388]: pam_unix(cron:session): session closed for user root
Jul 11 17:17:01 aimlsec CRON[29263]: pam_unix(cron:session): session opened for user root by (uid=0)
Jul 11 17:17:01 aimlsec CRON[29263]: pam_unix(cron:session): session closed for user root
Jul 11 18:17:01 aimlsec CRON[32049]: pam_unix(cron:session): session opened for user root by (uid=0)
Jul 11 18:17:01 aimlsec CRON[32049]: pam_unix(cron:session): session closed for user root
Jul 11 19:17:01 aimlsec CRON[2767]: pam_unix(cron:session): session opened for user root by (uid=0)
Jul 11 19:17:01 aimlsec CRON[2767]: pam_unix(cron:session): session closed for user root
Jul 11 20:17:01 aimlsec CRON[5645]: pam_unix(cron:session): session opened for user root by (uid=0)
Jul 11 20:17:01 aimlsec CRON[5645]: pam_unix(cron:session): session closed for user root
Jul 11 21:17:01 aimlsec CRON[8433]: pam_unix(cron:session): session opened for user root by (uid=0)
Jul 11 21:17:01 aimlsec CRON[8433]: pam_unix(cron:session): session closed for user root
Jul 11 22:17:01 aimlsec CRON[11117]: pam_unix(cron:session): session opened for user root by (uid=0)
Jul 11 22:17:01 aimlsec CRON[11117]: pam_unix(cron:session): session closed for user root
Jul 11 23:17:01 aimlsec CRON[13869]: pam_unix(cron:session): session opened for user root by (uid=0)
Jul 11 23:17:01 aimlsec CRON[13869]: pam_unix(cron:session): session closed for user root
Jul 12 00:14:02 aimlsec pkexec: pam_unix(polkit-1:session): session opened for user root by (uid=1000)
Jul 12 00:14:02 aimlsec pkexec[17161]: aimlsec: Executing command [USER=root] [TTY=unknown] [CWD=/home/aimlsec] [COMMAND=/usr/lib/update-notifier/package-system-locked]
Jul 12 00:17:01 aimlsec CRON[17301]: pam_unix(cron:session): session opened for user root by (uid=0)
Jul 12 00:17:01 aimlsec CRON[17301]: pam_unix(cron:session): session closed for user root
Jul 12 01:17:01 aimlsec CRON[19956]: pam_unix(cron:session): session opened for user root by (uid=0)
Jul 12 01:17:01 aimlsec CRON[19956]: pam_unix(cron:session): session closed for user root
Jul 12 01:50:01 aimlsec CRON[21478]: pam_unix(cron:session): session opened for user root by (uid=0)
Jul 12 01:50:01 aimlsec CRON[21478]: pam_unix(cron:session): session closed for user root
Jul 12 02:17:01 aimlsec CRON[22758]: pam_unix(cron:session): session opened for user root by (uid=0)
Jul 12 02:17:01 aimlsec CRON[22758]: pam_unix(cron:session): session closed for user root
Jul 12 03:17:01 aimlsec CRON[25552]: pam_unix(cron:session): session opened for user root by (uid=0)
Jul 12 03:17:01 aimlsec CRON[25552]: pam_unix(cron:session): session closed for user root
Jul 12 04:17:01 aimlsec CRON[28527]: pam_unix(cron:session): session opened for user root by (uid=0)
Jul 12 04:17:01 aimlsec CRON[28527]: pam_unix(cron:session): session closed for user root
Jul 12 05:17:01 aimlsec CRON[31454]: pam_unix(cron:session): session opened for user root by (uid=0)
Jul 12 05:17:01 aimlsec CRON[31454]: pam_unix(cron:session): session closed for user root
Jul 12 06:17:01 aimlsec CRON[2195]: pam_unix(cron:session): session opened for user root by (uid=0)
Jul 12 06:17:01 aimlsec CRON[2195]: pam_unix(cron:session): session closed for user root
Jul 12 06:25:01 aimlsec CRON[2572]: pam_unix(cron:session): session opened for user root by (uid=0)
Jul 12 06:25:01 aimlsec CRON[2572]: pam_unix(cron:session): session closed for user root
Jul 12 06:53:03 aimlsec pkexec: pam_unix(polkit-1:session): session opened for user root by (uid=1000)
Jul 12 06:53:03 aimlsec pkexec[4802]: aimlsec: Executing command [USER=root] [TTY=unknown] [CWD=/home/aimlsec] [COMMAND=/usr/lib/update-notifier/package-system-locked]
Jul 12 07:17:01 aimlsec CRON[6007]: pam_unix(cron:session): session opened for user root by (uid=0)
Jul 12 07:17:01 aimlsec CRON[6007]: pam_unix(cron:session): session closed for user root
Jul 12 07:30:01 aimlsec CRON[6604]: pam_unix(cron:session): session opened for user root by (uid=0)
Jul 12 07:30:01 aimlsec CRON[6604]: pam_unix(cron:session): session closed for user root
Jul 12 08:17:01 aimlsec CRON[8758]: pam_unix(cron:session): session opened for user root by (uid=0)
Jul 12 08:17:01 aimlsec CRON[8758]: pam_unix(cron:session): session closed for user root
Jul 12 09:17:01 aimlsec CRON[11617]: pam_unix(cron:session): session opened for user root by (uid=0)
Jul 12 09:17:01 aimlsec CRON[11617]: pam_unix(cron:session): session closed for user root
Jul 12 10:17:01 aimlsec CRON[14362]: pam_unix(cron:session): session opened for user root by (uid=0)
Jul 12 10:17:01 aimlsec CRON[14362]: pam_unix(cron:session): session closed for user root
Jul 12 11:17:01 aimlsec CRON[17180]: pam_unix(cron:session): session opened for user root by (uid=0)
Jul 12 11:17:01 aimlsec CRON[17180]: pam_unix(cron:session): session closed for user root
Jul 12 12:17:01 aimlsec CRON[19836]: pam_unix(cron:session): session opened for user root by (uid=0)
Jul 12 12:17:01 aimlsec CRON[19836]: pam_unix(cron:session): session closed for user root
Jul 12 13:17:01 aimlsec CRON[22485]: pam_unix(cron:session): session opened for user root by (uid=0)
Jul 12 13:17:01 aimlsec CRON[22485]: pam_unix(cron:session): session closed for user root
Jul 12 14:17:01 aimlsec CRON[25107]: pam_unix(cron:session): session opened for user root by (uid=0)
Jul 12 14:17:01 aimlsec CRON[25107]: pam_unix(cron:session): session closed for user root
Jul 12 15:17:01 aimlsec CRON[27720]: pam_unix(cron:session): session opened for user root by (uid=0)
Jul 12 15:17:01 aimlsec CRON[27720]: pam_unix(cron:session): session closed for user root
Jul 12 16:17:01 aimlsec CRON[30575]: pam_unix(cron:session): session opened for user root by (uid=0)
Jul 12 16:17:01 aimlsec CRON[30575]: pam_unix(cron:session): session closed for user root
Jul 12 17:17:01 aimlsec CRON[1098]: pam_unix(cron:session): session opened for user root by (uid=0)
Jul 12 17:17:01 aimlsec CRON[1098]: pam_unix(cron:session): session closed for user root
Jul 12 18:17:01 aimlsec CRON[4211]: pam_unix(cron:session): session opened for user root by (uid=0)
Jul 12 18:17:01 aimlsec CRON[4211]: pam_unix(cron:session): session closed for user root
Jul 12 19:17:01 aimlsec CRON[7030]: pam_unix(cron:session): session opened for user root by (uid=0)
Jul 12 19:17:01 aimlsec CRON[7030]: pam_unix(cron:session): session closed for user root
Jul 12 19:35:06 aimlsec gnome-keyring-daemon[1330]: couldn't initialize slot with master password: The password or PIN is incorrect
Jul 12 19:35:06 aimlsec gdm-password]: gkr-pam: unlocked login keyring
Jul 12 19:37:24 aimlsec sshd[7967]: Accepted password for aimlsec from 192.168.3.1 port 59783 ssh2
Jul 12 19:37:24 aimlsec sshd[7967]: pam_unix(sshd:session): session opened for user aimlsec by (uid=0)
Jul 12 19:37:24 aimlsec systemd-logind[448]: New session 819 of user aimlsec.
Jul 12 19:41:01 aimlsec gnome-keyring-daemon[1330]: couldn't initialize slot with master password: The password or PIN is incorrect
Jul 12 19:41:01 aimlsec gdm-password]: gkr-pam: unlocked login keyring
Jul 12 19:43:24 aimlsec sudo:  aimlsec : TTY=pts/20 ; PWD=/home/aimlsec ; USER=root ; COMMAND=/bin/bash
Jul 12 19:43:24 aimlsec sudo: pam_unix(sudo:session): session opened for user root by aimlsec(uid=0)
Jul 12 19:51:31 aimlsec sudo: pam_unix(sudo:session): session closed for user root
Jul 12 19:58:16 aimlsec sshd[9248]: Accepted password for aimlsec from 192.168.3.30 port 52622 ssh2
Jul 12 19:58:16 aimlsec sshd[9248]: pam_unix(sshd:session): session opened for user aimlsec by (uid=0)
Jul 12 19:58:16 aimlsec systemd-logind[448]: New session 820 of user aimlsec.
Jul 12 20:01:42 aimlsec polkitd(authority=local): Registered Authentication Agent for unix-process:9522:254037265 (system bus name :1.848 [/usr/bin/pkttyagent --notify-fd 5 --fallback], object path /org/freedesktop/PolicyKit1/AuthenticationAgent, locale en_US.UTF-8)
Jul 12 20:01:51 aimlsec polkitd(authority=local): Operator of unix-process:9522:254037265 successfully authenticated as unix-user:aimlsec to gain ONE-SHOT authorization for action org.freedesktop.systemd1.manage-units for system-bus-name::1.849 [systemctl restart filebeat.service] (owned by unix-user:aimlsec)
Jul 12 20:01:51 aimlsec polkitd(authority=local): Unregistered Authentication Agent for unix-process:9522:254037265 (system bus name :1.848, object path /org/freedesktop/PolicyKit1/AuthenticationAgent, locale en_US.UTF-8) (disconnected from bus)
Jul 12 20:02:55 aimlsec sshd[9317]: Received disconnect from 192.168.3.30 port 52622:11: disconnected by user
Jul 12 20:02:55 aimlsec sshd[9317]: Disconnected from user aimlsec 192.168.3.30 port 52622
Jul 12 20:02:55 aimlsec sshd[9248]: pam_unix(sshd:session): session closed for user aimlsec
Jul 12 20:02:55 aimlsec systemd-logind[448]: Removed session 820.
Jul 12 20:17:01 aimlsec CRON[10302]: pam_unix(cron:session): session opened for user root by (uid=0)
Jul 12 20:17:01 aimlsec CRON[10302]: pam_unix(cron:session): session closed for user root
Jul 12 20:58:45 aimlsec gnome-keyring-daemon[1330]: couldn't initialize slot with master password: The password or PIN is incorrect
Jul 12 20:58:45 aimlsec gdm-password]: gkr-pam: unlocked login keyring
Jul 12 21:17:01 aimlsec CRON[13156]: pam_unix(cron:session): session opened for user root by (uid=0)
Jul 12 21:17:01 aimlsec CRON[13156]: pam_unix(cron:session): session closed for user root
Jul 12 22:17:01 aimlsec CRON[15953]: pam_unix(cron:session): session opened for user root by (uid=0)
Jul 12 22:17:01 aimlsec CRON[15953]: pam_unix(cron:session): session closed for user root
Jul 12 23:17:01 aimlsec CRON[18777]: pam_unix(cron:session): session opened for user root by (uid=0)
Jul 12 23:17:01 aimlsec CRON[18777]: pam_unix(cron:session): session closed for user root
Jul 13 00:17:01 aimlsec CRON[21840]: pam_unix(cron:session): session opened for user root by (uid=0)
Jul 13 00:17:01 aimlsec CRON[21840]: pam_unix(cron:session): session closed for user root
Jul 13 01:17:01 aimlsec CRON[24604]: pam_unix(cron:session): session opened for user root by (uid=0)
Jul 13 01:17:01 aimlsec CRON[24604]: pam_unix(cron:session): session closed for user root
Jul 13 01:50:01 aimlsec CRON[26117]: pam_unix(cron:session): session opened for user root by (uid=0)
Jul 13 01:50:01 aimlsec CRON[26117]: pam_unix(cron:session): session closed for user root
Jul 13 02:17:01 aimlsec CRON[27385]: pam_unix(cron:session): session opened for user root by (uid=0)
Jul 13 02:17:01 aimlsec CRON[27385]: pam_unix(cron:session): session closed for user root
Jul 13 03:17:01 aimlsec CRON[30242]: pam_unix(cron:session): session opened for user root by (uid=0)
Jul 13 03:17:01 aimlsec CRON[30242]: pam_unix(cron:session): session closed for user root
Jul 13 04:17:01 aimlsec CRON[733]: pam_unix(cron:session): session opened for user root by (uid=0)
Jul 13 04:17:01 aimlsec CRON[733]: pam_unix(cron:session): session closed for user root
Jul 13 05:17:01 aimlsec CRON[3884]: pam_unix(cron:session): session opened for user root by (uid=0)
Jul 13 05:17:01 aimlsec CRON[3884]: pam_unix(cron:session): session closed for user root
Jul 13 05:29:03 aimlsec pkexec: pam_unix(polkit-1:session): session opened for user root by (uid=1000)
Jul 13 05:29:03 aimlsec pkexec[4972]: aimlsec: Executing command [USER=root] [TTY=unknown] [CWD=/home/aimlsec] [COMMAND=/usr/lib/update-notifier/package-system-locked]
Jul 13 06:17:01 aimlsec CRON[7143]: pam_unix(cron:session): session opened for user root by (uid=0)
Jul 13 06:17:01 aimlsec CRON[7143]: pam_unix(cron:session): session closed for user root
Jul 13 06:25:01 aimlsec CRON[7505]: pam_unix(cron:session): session opened for user root by (uid=0)
Jul 13 06:25:01 aimlsec CRON[7505]: pam_unix(cron:session): session closed for user root
Jul 13 07:17:01 aimlsec CRON[9989]: pam_unix(cron:session): session opened for user root by (uid=0)
Jul 13 07:17:01 aimlsec CRON[9989]: pam_unix(cron:session): session closed for user root
Jul 13 07:30:01 aimlsec CRON[10612]: pam_unix(cron:session): session opened for user root by (uid=0)
Jul 13 07:30:01 aimlsec CRON[10612]: pam_unix(cron:session): session closed for user root
Jul 13 08:17:01 aimlsec CRON[12790]: pam_unix(cron:session): session opened for user root by (uid=0)
Jul 13 08:17:01 aimlsec CRON[12790]: pam_unix(cron:session): session closed for user root
Jul 13 09:17:01 aimlsec CRON[15649]: pam_unix(cron:session): session opened for user root by (uid=0)
Jul 13 09:17:01 aimlsec CRON[15649]: pam_unix(cron:session): session closed for user root
Jul 13 10:17:01 aimlsec CRON[18434]: pam_unix(cron:session): session opened for user root by (uid=0)
Jul 13 10:17:01 aimlsec CRON[18434]: pam_unix(cron:session): session closed for user root
Jul 13 11:17:01 aimlsec CRON[21248]: pam_unix(cron:session): session opened for user root by (uid=0)
Jul 13 11:17:01 aimlsec CRON[21248]: pam_unix(cron:session): session closed for user root
Jul 13 12:17:01 aimlsec CRON[24095]: pam_unix(cron:session): session opened for user root by (uid=0)
Jul 13 12:17:01 aimlsec CRON[24095]: pam_unix(cron:session): session closed for user root
Jul 13 13:17:01 aimlsec CRON[26863]: pam_unix(cron:session): session opened for user root by (uid=0)
Jul 13 13:17:01 aimlsec CRON[26863]: pam_unix(cron:session): session closed for user root
Jul 13 14:17:01 aimlsec CRON[29761]: pam_unix(cron:session): session opened for user root by (uid=0)
Jul 13 14:17:01 aimlsec CRON[29761]: pam_unix(cron:session): session closed for user root
Jul 13 15:17:01 aimlsec CRON[32614]: pam_unix(cron:session): session opened for user root by (uid=0)
Jul 13 15:17:01 aimlsec CRON[32614]: pam_unix(cron:session): session closed for user root
Jul 13 16:17:01 aimlsec CRON[3370]: pam_unix(cron:session): session opened for user root by (uid=0)
Jul 13 16:17:01 aimlsec CRON[3370]: pam_unix(cron:session): session closed for user root
Jul 13 17:17:01 aimlsec CRON[6222]: pam_unix(cron:session): session opened for user root by (uid=0)
Jul 13 17:17:01 aimlsec CRON[6222]: pam_unix(cron:session): session closed for user root
Jul 13 18:17:01 aimlsec CRON[8929]: pam_unix(cron:session): session opened for user root by (uid=0)
Jul 13 18:17:01 aimlsec CRON[8929]: pam_unix(cron:session): session closed for user root
Jul 13 19:17:01 aimlsec CRON[11692]: pam_unix(cron:session): session opened for user root by (uid=0)
Jul 13 19:17:01 aimlsec CRON[11692]: pam_unix(cron:session): session closed for user root
Jul 13 20:17:01 aimlsec CRON[14320]: pam_unix(cron:session): session opened for user root by (uid=0)
Jul 13 20:17:01 aimlsec CRON[14320]: pam_unix(cron:session): session closed for user root
Jul 13 21:17:01 aimlsec CRON[17032]: pam_unix(cron:session): session opened for user root by (uid=0)
Jul 13 21:17:01 aimlsec CRON[17032]: pam_unix(cron:session): session closed for user root
Jul 13 22:17:01 aimlsec CRON[19752]: pam_unix(cron:session): session opened for user root by (uid=0)
Jul 13 22:17:01 aimlsec CRON[19752]: pam_unix(cron:session): session closed for user root
Jul 13 23:17:01 aimlsec CRON[22626]: pam_unix(cron:session): session opened for user root by (uid=0)
Jul 13 23:17:01 aimlsec CRON[22626]: pam_unix(cron:session): session closed for user root
Jul 14 00:17:01 aimlsec CRON[25611]: pam_unix(cron:session): session opened for user root by (uid=0)
Jul 14 00:17:01 aimlsec CRON[25611]: pam_unix(cron:session): session closed for user root
Jul 14 01:17:01 aimlsec CRON[28439]: pam_unix(cron:session): session opened for user root by (uid=0)
Jul 14 01:17:01 aimlsec CRON[28439]: pam_unix(cron:session): session closed for user root
Jul 14 01:50:01 aimlsec CRON[30069]: pam_unix(cron:session): session opened for user root by (uid=0)
Jul 14 01:50:01 aimlsec CRON[30069]: pam_unix(cron:session): session closed for user root
Jul 14 02:17:01 aimlsec CRON[31321]: pam_unix(cron:session): session opened for user root by (uid=0)
Jul 14 02:17:01 aimlsec CRON[31321]: pam_unix(cron:session): session closed for user root
Jul 14 03:17:01 aimlsec CRON[2054]: pam_unix(cron:session): session opened for user root by (uid=0)
Jul 14 03:17:01 aimlsec CRON[2054]: pam_unix(cron:session): session closed for user root
Jul 14 04:17:01 aimlsec CRON[5215]: pam_unix(cron:session): session opened for user root by (uid=0)
Jul 14 04:17:01 aimlsec CRON[5215]: pam_unix(cron:session): session closed for user root
Jul 14 05:17:01 aimlsec CRON[8037]: pam_unix(cron:session): session opened for user root by (uid=0)
Jul 14 05:17:01 aimlsec CRON[8037]: pam_unix(cron:session): session closed for user root
Jul 14 06:17:01 aimlsec CRON[10827]: pam_unix(cron:session): session opened for user root by (uid=0)
Jul 14 06:17:01 aimlsec CRON[10827]: pam_unix(cron:session): session closed for user root
Jul 14 06:25:01 aimlsec CRON[11195]: pam_unix(cron:session): session opened for user root by (uid=0)
Jul 14 06:25:01 aimlsec CRON[11195]: pam_unix(cron:session): session closed for user root
Jul 14 06:47:01 aimlsec CRON[12278]: pam_unix(cron:session): session opened for user root by (uid=0)
Jul 14 06:47:01 aimlsec CRON[12278]: pam_unix(cron:session): session closed for user root
Jul 14 07:17:01 aimlsec CRON[13696]: pam_unix(cron:session): session opened for user root by (uid=0)
Jul 14 07:17:01 aimlsec CRON[13696]: pam_unix(cron:session): session closed for user root
Jul 14 07:30:01 aimlsec CRON[14293]: pam_unix(cron:session): session opened for user root by (uid=0)
Jul 14 07:30:01 aimlsec CRON[14293]: pam_unix(cron:session): session closed for user root
Jul 14 08:17:01 aimlsec CRON[16452]: pam_unix(cron:session): session opened for user root by (uid=0)
Jul 14 08:17:01 aimlsec CRON[16452]: pam_unix(cron:session): session closed for user root
Jul 14 09:17:01 aimlsec CRON[19161]: pam_unix(cron:session): session opened for user root by (uid=0)
Jul 14 09:17:01 aimlsec CRON[19161]: pam_unix(cron:session): session closed for user root
Jul 14 10:05:03 aimlsec pkexec: pam_unix(polkit-1:session): session opened for user root by (uid=1000)
Jul 14 10:05:03 aimlsec pkexec[21882]: aimlsec: Executing command [USER=root] [TTY=unknown] [CWD=/home/aimlsec] [COMMAND=/usr/lib/update-notifier/package-system-locked]
Jul 14 10:17:01 aimlsec CRON[22478]: pam_unix(cron:session): session opened for user root by (uid=0)
Jul 14 10:17:01 aimlsec CRON[22478]: pam_unix(cron:session): session closed for user root
Jul 14 11:17:01 aimlsec CRON[25160]: pam_unix(cron:session): session opened for user root by (uid=0)
Jul 14 11:17:01 aimlsec CRON[25160]: pam_unix(cron:session): session closed for user root
Jul 14 12:17:01 aimlsec CRON[27846]: pam_unix(cron:session): session opened for user root by (uid=0)
Jul 14 12:17:01 aimlsec CRON[27846]: pam_unix(cron:session): session closed for user root
Jul 14 13:17:01 aimlsec CRON[30698]: pam_unix(cron:session): session opened for user root by (uid=0)
Jul 14 13:17:01 aimlsec CRON[30698]: pam_unix(cron:session): session closed for user root
Jul 14 14:17:01 aimlsec CRON[1226]: pam_unix(cron:session): session opened for user root by (uid=0)
Jul 14 14:17:01 aimlsec CRON[1226]: pam_unix(cron:session): session closed for user root
Jul 14 15:17:01 aimlsec CRON[4342]: pam_unix(cron:session): session opened for user root by (uid=0)
Jul 14 15:17:01 aimlsec CRON[4342]: pam_unix(cron:session): session closed for user root
Jul 14 16:17:01 aimlsec CRON[7186]: pam_unix(cron:session): session opened for user root by (uid=0)
Jul 14 16:17:01 aimlsec CRON[7186]: pam_unix(cron:session): session closed for user root
Jul 14 17:17:01 aimlsec CRON[10010]: pam_unix(cron:session): session opened for user root by (uid=0)
Jul 14 17:17:01 aimlsec CRON[10010]: pam_unix(cron:session): session closed for user root
Jul 14 18:17:01 aimlsec CRON[12772]: pam_unix(cron:session): session opened for user root by (uid=0)
Jul 14 18:17:01 aimlsec CRON[12772]: pam_unix(cron:session): session closed for user root
Jul 14 19:17:01 aimlsec CRON[15596]: pam_unix(cron:session): session opened for user root by (uid=0)
Jul 14 19:17:01 aimlsec CRON[15596]: pam_unix(cron:session): session closed for user root
Jul 14 20:17:01 aimlsec CRON[18384]: pam_unix(cron:session): session opened for user root by (uid=0)
Jul 14 20:17:01 aimlsec CRON[18384]: pam_unix(cron:session): session closed for user root
Jul 14 21:17:01 aimlsec CRON[21174]: pam_unix(cron:session): session opened for user root by (uid=0)
Jul 14 21:17:01 aimlsec CRON[21174]: pam_unix(cron:session): session closed for user root
Jul 14 22:17:01 aimlsec CRON[23933]: pam_unix(cron:session): session opened for user root by (uid=0)
Jul 14 22:17:01 aimlsec CRON[23933]: pam_unix(cron:session): session closed for user root
Jul 14 23:17:01 aimlsec CRON[26811]: pam_unix(cron:session): session opened for user root by (uid=0)
Jul 14 23:17:01 aimlsec CRON[26811]: pam_unix(cron:session): session closed for user root
