Jul 15 13:38:31 aimlsec kernel: [2776561.469435] device docker0 entered promiscuous mode
Jul 15 13:39:19 aimlsec kernel: [2776609.201831] device docker0 left promiscuous mode
Jul 15 13:40:06 aimlsec kernel: [2776656.650054] device docker0 entered promiscuous mode
Jul 15 13:43:43 aimlsec kernel: [2776872.931140] device docker0 left promiscuous mode
Jul 15 13:45:18 aimlsec kernel: [2776968.494063] device docker0 entered promiscuous mode
Jul 15 13:45:37 aimlsec kernel: [2776987.683035] device enp0s3 entered promiscuous mode
Jul 15 19:49:08 aimlsec kernel: [2798798.865866] rfkill: input handler enabled
Jul 15 20:12:52 aimlsec kernel: [2800222.537539] rfkill: input handler disabled
Jul 15 20:13:08 aimlsec kernel: [2800238.680338] firefox[24592]: segfault at 0 ip 00007fe38b81ec8e sp 00007ffe8984ec48 error 6 in libxul.so[7fe388f3f000+6998000]
Jul 15 20:13:14 aimlsec kernel: [2800244.403219] firefox[24606]: segfault at 0 ip 00007fef2451ec8e sp 00007ffd56fd99e8 error 6 in libxul.so[7fef21c3f000+6998000]
Jul 15 20:13:16 aimlsec kernel: [2800246.547809] firefox[24612]: segfault at 0 ip 00007f371551ec8e sp 00007ffc9a7ad878 error 6 in libxul.so[7f3712c3f000+6998000]
